<?xml version="1.0" encoding="UTF-8" standalone="no"?>
<svg
   xmlns:dc="http://purl.org/dc/elements/1.1/"
   xmlns:cc="http://creativecommons.org/ns#"
   xmlns:rdf="http://www.w3.org/1999/02/22-rdf-syntax-ns#"
   xmlns:svg="http://www.w3.org/2000/svg"
   xmlns="http://www.w3.org/2000/svg"
   xmlns:sodipodi="http://sodipodi.sourceforge.net/DTD/sodipodi-0.dtd"
   xmlns:inkscape="http://www.inkscape.org/namespaces/inkscape"
   sodipodi:docname="linuxgraphic.svg"
   inkscape:version="1.0 (4035a4fb49, 2020-05-01)"
   id="svg8"
   version="1.1"
   viewBox="0 0 55.585121 33.548141"
   height="33.548141mm"
   width="55.585121mm">
  <defs
     id="defs2" />
  <sodipodi:namedview
     fit-margin-bottom="0"
     fit-margin-right="0"
     fit-margin-left="0"
     fit-margin-top="0"
     inkscape:window-maximized="1"
     inkscape:window-y="22"
     inkscape:window-x="0"
     inkscape:window-height="1776"
     inkscape:window-width="3198"
     inkscape:guide-bbox="true"
     showguides="true"
     showgrid="false"
     inkscape:document-rotation="0"
     inkscape:current-layer="layer1"
     inkscape:document-units="mm"
     inkscape:cy="19.107085"
     inkscape:cx="231.64375"
     inkscape:zoom="2.753319"
     inkscape:pageshadow="2"
     inkscape:pageopacity="0.0"
     borderopacity="1.0"
     bordercolor="#666666"
     pagecolor="#ffffff"
     id="base">
    <sodipodi:guide
       id="guide1171"
       orientation="1,0"
       position="104.83736,29.113909" />
  </sodipodi:namedview>
  <metadata
     id="metadata5">
    <rdf:RDF>
      <cc:Work
         rdf:about="">
        <dc:format>image/svg+xml</dc:format>
        <dc:type
           rdf:resource="http://purl.org/dc/dcmitype/StillImage" />
        <dc:title></dc:title>
      </cc:Work>
    </rdf:RDF>
  </metadata>
  <g
     transform="translate(18.184928,-68.087588)"
     id="layer1"
     inkscape:groupmode="layer"
     inkscape:label="Layer 1">
    <g
       id="g1183">
      <g
         transform="rotate(-51.550043,28.550329,93.793445)"
         id="g1194">
        <g
           id="g1188">
          <path
             style="fill:#6a6a64;fill-opacity:1;fill-rule:evenodd;stroke:#6a6a64;stroke-width:0.264583px;stroke-linecap:butt;stroke-linejoin:miter;stroke-opacity:1"
             d="m 9.800246,69.452853 c -0.577531,-6.208364 0.09934,-12.59593 -2.041763,-18.580924 6.265669,-1.054078 12.620337,-1.124772 19.076049,-0.07896 -2.606002,6.436243 -1.112033,12.448346 -1.545947,18.659888 -1.557168,1.420486 -5.030466,0.02 -6.251831,4.688455 -0.468086,1.645289 0.37784,17.597309 -1.740246,17.597301 -2.118086,-8e-6 -1.31605,-16.235728 -1.922999,-17.550765 -1.720729,-4.935285 -3.703385,-3.453681 -5.573263,-4.734991 z"
             id="path1167"
             sodipodi:nodetypes="ccccczcc" />
          <rect
             style="fill:#ffffff;fill-opacity:1;stroke:#6a6a64;stroke-width:0.1;stroke-linecap:round;stroke-linejoin:round;stroke-opacity:1"
             id="rect1173"
             width="13.503717"
             height="0.82188767"
             x="11.080584"
             y="63.935062" />
          <rect
             y="65.943054"
             x="11.080584"
             height="2.0400698"
             width="13.503716"
             id="rect1175"
             style="fill:#ffffff;fill-opacity:1;stroke:#6a6a64;stroke-width:0.1;stroke-linecap:round;stroke-linejoin:round;stroke-opacity:1" />
        </g>
      </g>
      <g
         id="g1204"
         transform="matrix(-0.62183086,-0.78315157,-0.78315157,0.62183086,81.872894,57.727946)">
        <g
           id="g1202">
          <path
             sodipodi:nodetypes="ccccczcc"
             id="path1196"
             d="m 9.800246,69.452853 c -0.577531,-6.208364 0.09934,-12.59593 -2.041763,-18.580924 6.265669,-1.054078 12.620337,-1.124772 19.076049,-0.07896 -2.606002,6.436243 -1.112033,12.448346 -1.545947,18.659888 -1.557168,1.420486 -5.030466,0.02 -6.251831,4.688455 -0.468086,1.645289 0.37784,17.597309 -1.740246,17.597301 -2.118086,-8e-6 -1.31605,-16.235728 -1.922999,-17.550765 -1.720729,-4.935285 -3.703385,-3.453681 -5.573263,-4.734991 z"
             style="fill:#6a6a64;fill-opacity:1;fill-rule:evenodd;stroke:#6a6a64;stroke-width:0.264583px;stroke-linecap:butt;stroke-linejoin:miter;stroke-opacity:1" />
          <rect
             y="63.935062"
             x="11.080584"
             height="0.82188767"
             width="13.503717"
             id="rect1198"
             style="fill:#ffffff;fill-opacity:1;stroke:#6a6a64;stroke-width:0.1;stroke-linecap:round;stroke-linejoin:round;stroke-opacity:1" />
          <rect
             style="fill:#ffffff;fill-opacity:1;stroke:#6a6a64;stroke-width:0.1;stroke-linecap:round;stroke-linejoin:round;stroke-opacity:1"
             id="rect1200"
             width="13.503716"
             height="2.0400698"
             x="11.080584"
             y="65.943054" />
        </g>
      </g>
    </g>
  </g>
</svg>
